@startuml

skinparam componentStyle uml2

interface "Prediction API" as api

component "underwriting-selfie-web" as web <<Angular>>
component "underwriting-selfie-mobile" as mobile <<Android>>

package "SpringBoot application" {

component "underwriting-profiling-rest" as profiling <<REST-SpringBoot-Java>>
component "common-ai" as ai <<Scala lib>>
component "underwriting-ai" as ai <<Scala lib>>
component "underwriting-ai-dl4j" as ai_dl4j <<Scala lib>>
component "underwriting-ai-caffe" as ai_caffe <<Scala lib>>
component "underwriting-ai-ml-dl4j" as ai_ml_dl4j <<Scala lib>>

component "deeplearning4j" as dl4j <<Java lib>>
component "java-presets" as caffe <<Java lib>>
profiling ..> HTTP : use
}

component "underwriting-ai-ml-data" as data <<Python>>

web ..> api : consume
mobile ..> api : consume

api - profiling
profiling ..> ai : use
profiling ..> ai_dl4j : use
profiling ..> ai_caffe : use

ai_caffe ..> ai : use
ai_caffe ..> caffe : use
ai_dl4j ..> ai : use
ai_dl4j ..> dl4j : use
ai_ml_dl4j ..> ai : use
ai_ml_dl4j ..> dl4j : use
ai_ml_dl4j ..> data : use artefacts produced by

@enduml